D:\workspace\CollectiveAutomationSuiteRegression\src\test\java\org\collective\customer\pageobjects\CollectiveMadeToMeasurePageObjects.java
D:\workspace\CollectiveAutomationSuiteRegression\src\test\java\org\collective\admin\pageobjects\CollectiveAdminReportPageObjects.java
D:\workspace\CollectiveAutomationSuiteRegression\src\test\java\org\collective\utils\Screenshot.java
D:\workspace\CollectiveAutomationSuiteRegression\src\test\java\org\collective\utils\VerifyPage.java
D:\workspace\CollectiveAutomationSuiteRegression\src\test\java\org\collective\admin\pageobjects\CollectiveAdminProductsPageObjects.java
D:\workspace\CollectiveAutomationSuiteRegression\src\test\java\org\collective\admin\pageobjects\CollectiveAdminSettingsPageObjects.java
D:\workspace\CollectiveAutomationSuiteRegression\src\test\java\org\collective\customer\pageobjects\CollectiveCasualShirtPageObjects.java
D:\workspace\CollectiveAutomationSuiteRegression\src\test\java\org\collective\admin\pageobjects\CollectiveAdminHomePageObjects.java
D:\workspace\CollectiveAutomationSuiteRegression\src\test\java\org\collective\utils\RestCustomMethods.java
D:\workspace\CollectiveAutomationSuiteRegression\src\test\java\org\collective\admin\pageobjects\CollectiveAdminAnalyticScriptsPageObjects.java
D:\workspace\CollectiveAutomationSuiteRegression\src\test\java\org\collective\customer\pageobjects\CollectiveJeansPageObjects.java
D:\workspace\CollectiveAutomationSuiteRegression\src\test\java\org\collective\customer\pageobjects\CollectiveCasualJacketPageObjects.java
D:\workspace\CollectiveAutomationSuiteRegression\src\test\java\org\collective\utils\RandomNumberGenerator.java
D:\workspace\CollectiveAutomationSuiteRegression\src\test\java\org\collective\admin\pageobjects\CollectiveAdminFeatureCollectionPageObjects.java
D:\workspace\CollectiveAutomationSuiteRegression\src\test\java\org\collective\admin\pageobjects\CollectiveAdminCarouselPageObjects.java
D:\workspace\CollectiveAutomationSuiteRegression\src\test\java\org\collective\admin\pageobjects\CollectiveAdminUsersPageObjects.java
D:\workspace\CollectiveAutomationSuiteRegression\src\test\java\org\collective\customer\pageobjects\CollectiveAdrianoGoldschmiedPageObjects.java
D:\workspace\CollectiveAutomationSuiteRegression\src\test\java\org\collective\customer\pageobjects\CollectiveBagsPageObjects.java
D:\workspace\CollectiveAutomationSuiteRegression\src\test\java\org\collective\customer\pageobjects\CollectiveLoginPageObjects.java
D:\workspace\CollectiveAutomationSuiteRegression\src\test\java\org\collective\customer\pageobjects\CollectiveSignupPageObjects.java
D:\workspace\CollectiveAutomationSuiteRegression\src\test\java\org\collective\utils\ReportGenerator.java
D:\workspace\CollectiveAutomationSuiteRegression\src\test\java\org\collective\customer\pageobjects\CollectiveShoppingCartPageObjects.java
D:\workspace\CollectiveAutomationSuiteRegression\src\test\java\org\collective\admin\pageobjects\CollectiveAdminReturnsPageObjects.java
D:\workspace\CollectiveAutomationSuiteRegression\src\test\java\org\collective\testmethods\CollectiveRegressionTestCustomer.java
D:\workspace\CollectiveAutomationSuiteRegression\src\test\java\org\collective\admin\pageobjects\CollectiveAdminBlogPageObjects.java
D:\workspace\CollectiveAutomationSuiteRegression\src\test\java\org\collective\admin\pageobjects\CollectiveAdminOrdersPageObjects.java
D:\workspace\CollectiveAutomationSuiteRegression\src\test\java\org\collective\customer\pageobjects\CollectiveSalesPageObjects.java
D:\workspace\CollectiveAutomationSuiteRegression\src\test\java\org\collective\admin\pageobjects\CollectiveAdminPromotionsPageObjects.java
D:\workspace\CollectiveAutomationSuiteRegression\src\test\java\org\collective\customer\pageobjects\CollectiveFivePKTDenimJeansPageObjects.java
D:\workspace\CollectiveAutomationSuiteRegression\src\test\java\org\collective\customer\pageobjects\YoutubePageObjects.java
D:\workspace\CollectiveAutomationSuiteRegression\src\test\java\org\collective\utils\SearchData.java
D:\workspace\CollectiveAutomationSuiteRegression\src\test\java\org\collective\admin\pageobjects\CollectiveAdminStoreLocatorPageObjects.java
D:\workspace\CollectiveAutomationSuiteRegression\src\test\java\org\collective\customer\pageobjects\CollectiveHomePageObjects.java
D:\workspace\CollectiveAutomationSuiteRegression\src\test\java\org\collective\testmethods\CollectiveRegressionTestURL.java
D:\workspace\CollectiveAutomationSuiteRegression\src\test\java\org\collective\utils\TestUtility.java
D:\workspace\CollectiveAutomationSuiteRegression\src\test\java\org\collective\utils\Waiting.java
D:\workspace\CollectiveAutomationSuiteRegression\src\test\java\org\collective\customer\pageobjects\CollectiveBlogPageObjects.java
D:\workspace\CollectiveAutomationSuiteRegression\src\test\java\org\collective\utils\ApplicationSetUp.java
D:\workspace\CollectiveAutomationSuiteRegression\src\test\java\org\collective\utils\TodaysDetails.java
D:\workspace\CollectiveAutomationSuiteRegression\src\test\java\org\collective\testmethods\CollectiveRegressionTestAdmin.java
D:\workspace\CollectiveAutomationSuiteRegression\src\test\java\org\collective\maincontroller\MainController.java
D:\workspace\CollectiveAutomationSuiteRegression\src\test\java\org\collective\utils\SendEmail.java
